<svg width="80" height="80" viewBox="0 0 80 80" fill="none" xmlns="http://www.w3.org/2000/svg">
<path d="M75.7106 41.8383C77.3268 41.1456 77.3268 38.8544 75.7106 38.1617L64.868 33.5149C56.6075 29.9747 50.0253 23.3925 46.4851 15.132L41.8383 4.28935C41.1456 2.67314 38.8543 2.67314 38.1617 4.28936L33.5148 15.132C29.9746 23.3925 23.3925 29.9747 15.1319 33.5149L4.28931 38.1617C2.67309 38.8544 2.67309 41.1456 4.28931 41.8383L15.1319 46.4851C23.3925 50.0254 29.9746 56.6075 33.5148 64.868L38.1617 75.7107C38.8543 77.3269 41.1456 77.3269 41.8383 75.7107L46.4851 64.868C50.0253 56.6075 56.6075 50.0254 64.868 46.4851L75.7106 41.8383Z" fill="#18181B"/>
</svg>
